{
    "startShipsCombatSmall":[
      ["TADA_tinnitus_assault", "TADA_tinnitus_assault", "TADA_tinnitus_support", "TADA_tinnitus_beamer"],
    ],
    "startShipsCombatLarge":[
      ["TADA_bonnethead_standard", "hammerhead_Elite", "brawler_Starting"],
    ],
}